<define-tag pagetitle>DLA-805-1 bind9</define-tag>
<define-tag report_date>2017-1-29</define-tag>
<define-tag secrefs>CVE-2016-9131 CVE-2016-9147 CVE-2016-9444</define-tag>
<define-tag packages>bind9</define-tag>
<define-tag isvulnerable>yes</define-tag>
<define-tag fixed>yes</define-tag>
<define-tag fixed-section>no</define-tag>

#use wml::debian::security

