<define-tag pagetitle>DLA-862-1 sitesummary</define-tag>
<define-tag report_date>2017-3-19</define-tag>
<define-tag secrefs>Bug#852623</define-tag>
<define-tag packages>sitesummary</define-tag>
<define-tag isvulnerable>yes</define-tag>
<define-tag fixed>yes</define-tag>
<define-tag fixed-section>no</define-tag>

#use wml::debian::security

